LOG_FILE.log
UVM_INFO /home/runner/parity_scoreboard.sv(64) @ 0: uvm_test_top.env_h.scoreboard_h [write_mon OUT ] data=00000000  || odd_parity=x even_parity=x
UVM_INFO /home/runner/parity_scoreboard.sv(50) @ 5: uvm_test_top.env_h.scoreboard_h [write_drv STIM] data=00000110 
UVM_INFO /home/runner/parity_scoreboard.sv(64) @ 5: uvm_test_top.env_h.scoreboard_h [write_mon OUT ] data=00000110  || odd_parity=0 even_parity=1
UVM_INFO /home/runner/parity_scoreboard.sv(50) @ 10: uvm_test_top.env_h.scoreboard_h [write_drv STIM] data=01110011 
UVM_INFO /home/runner/parity_scoreboard.sv(64) @ 10: uvm_test_top.env_h.scoreboard_h [write_mon OUT ] data=01110011  || odd_parity=1 even_parity=0
UVM_INFO /home/runner/parity_scoreboard.sv(81) @ 10: uvm_test_top.env_h.scoreboard_h [
[ PASS ] data=01110011  || odd_parity=1 even_parity=0
UVM_INFO /home/runner/parity_scoreboard.sv(50) @ 15: uvm_test_top.env_h.scoreboard_h [write_drv STIM] data=01001101 
UVM_INFO /home/runner/parity_scoreboard.sv(64) @ 15: uvm_test_top.env_h.scoreboard_h [write_mon OUT ] data=01001101  || odd_parity=0 even_parity=1
UVM_INFO /home/runner/parity_scoreboard.sv(81) @ 15: uvm_test_top.env_h.scoreboard_h [
[ PASS ] data=01001101  || odd_parity=0 even_parity=1
UVM_INFO /home/runner/parity_scoreboard.sv(50) @ 20: uvm_test_top.env_h.scoreboard_h [write_drv STIM] data=10010100 
UVM_INFO /home/runner/parity_scoreboard.sv(64) @ 20: uvm_test_top.env_h.scoreboard_h [write_mon OUT ] data=10010100  || odd_parity=1 even_parity=0
UVM_INFO /home/runner/parity_scoreboard.sv(81) @ 20: uvm_test_top.env_h.scoreboard_h [
[ PASS ] data=10010100  || odd_parity=1 even_parity=0
UVM_INFO /home/runner/parity_scoreboard.sv(50) @ 25: uvm_test_top.env_h.scoreboard_h [write_drv STIM] data=01001000 
UVM_INFO /home/runner/parity_scoreboard.sv(64) @ 25: uvm_test_top.env_h.scoreboard_h [write_mon OUT ] data=01001000  || odd_parity=0 even_parity=1
UVM_INFO /home/runner/parity_scoreboard.sv(81) @ 25: uvm_test_top.env_h.scoreboard_h [
[ PASS ] data=01001000  || odd_parity=0 even_parity=1
UVM_INFO /home/runner/parity_scoreboard.sv(50) @ 30: uvm_test_top.env_h.scoreboard_h [write_drv STIM] data=01101001 
UVM_INFO /home/runner/parity_scoreboard.sv(64) @ 30: uvm_test_top.env_h.scoreboard_h [write_mon OUT ] data=01101001  || odd_parity=0 even_parity=1
UVM_INFO /home/runner/parity_scoreboard.sv(81) @ 30: uvm_test_top.env_h.scoreboard_h [
[ PASS ] data=01101001  || odd_parity=0 even_parity=1
UVM_INFO /home/runner/parity_scoreboard.sv(50) @ 35: uvm_test_top.env_h.scoreboard_h [write_drv STIM] data=11110111 
UVM_INFO /home/runner/parity_scoreboard.sv(64) @ 35: uvm_test_top.env_h.scoreboard_h [write_mon OUT ] data=11110111  || odd_parity=1 even_parity=0
UVM_INFO /home/runner/parity_scoreboard.sv(81) @ 35: uvm_test_top.env_h.scoreboard_h [
[ PASS ] data=11110111  || odd_parity=1 even_parity=0
UVM_INFO /home/runner/parity_scoreboard.sv(50) @ 40: uvm_test_top.env_h.scoreboard_h [write_drv STIM] data=11110010 
UVM_INFO /home/runner/parity_scoreboard.sv(64) @ 40: uvm_test_top.env_h.scoreboard_h [write_mon OUT ] data=11110010  || odd_parity=1 even_parity=0
UVM_INFO /home/runner/parity_scoreboard.sv(81) @ 40: uvm_test_top.env_h.scoreboard_h [
[ PASS ] data=11110010  || odd_parity=1 even_parity=0
UVM_INFO /home/runner/parity_scoreboard.sv(50) @ 45: uvm_test_top.env_h.scoreboard_h [write_drv STIM] data=01011010 
UVM_INFO /home/runner/parity_scoreboard.sv(64) @ 45: uvm_test_top.env_h.scoreboard_h [write_mon OUT ] data=01011010  || odd_parity=0 even_parity=1
UVM_INFO /home/runner/parity_scoreboard.sv(81) @ 45: uvm_test_top.env_h.scoreboard_h [
[ PASS ] data=01011010  || odd_parity=0 even_parity=1
UVM_INFO /home/runner/parity_scoreboard.sv(50) @ 50: uvm_test_top.env_h.scoreboard_h [write_drv STIM] data=00101111 
UVM_INFO /home/runner/parity_scoreboard.sv(64) @ 50: uvm_test_top.env_h.scoreboard_h [write_mon OUT ] data=00101111  || odd_parity=1 even_parity=0
UVM_INFO /home/runner/parity_scoreboard.sv(81) @ 50: uvm_test_top.env_h.scoreboard_h [
[ PASS ] data=00101111  || odd_parity=1 even_parity=0
UVM_INFO /home/runner/parity_scoreboard.sv(50) @ 55: uvm_test_top.env_h.scoreboard_h [write_drv STIM] data=01110001 
UVM_INFO /home/runner/parity_scoreboard.sv(64) @ 55: uvm_test_top.env_h.scoreboard_h [write_mon OUT ] data=01110001  || odd_parity=0 even_parity=1
UVM_INFO /home/runner/parity_scoreboard.sv(81) @ 55: uvm_test_top.env_h.scoreboard_h [
[ PASS ] data=01110001  || odd_parity=0 even_parity=1
UVM_INFO /home/runner/parity_scoreboard.sv(50) @ 60: uvm_test_top.env_h.scoreboard_h [write_drv STIM] data=00100000 
UVM_INFO /home/runner/parity_scoreboard.sv(64) @ 60: uvm_test_top.env_h.scoreboard_h [write_mon OUT ] data=00100000  || odd_parity=1 even_parity=0
UVM_INFO /home/runner/parity_scoreboard.sv(81) @ 60: uvm_test_top.env_h.scoreboard_h [
[ PASS ] data=00100000  || odd_parity=1 even_parity=0
UVM_INFO /home/runner/parity_scoreboard.sv(50) @ 65: uvm_test_top.env_h.scoreboard_h [write_drv STIM] data=00111100 
UVM_INFO /home/runner/parity_scoreboard.sv(64) @ 65: uvm_test_top.env_h.scoreboard_h [write_mon OUT ] data=00111100  || odd_parity=0 even_parity=1
UVM_INFO /home/runner/parity_scoreboard.sv(81) @ 65: uvm_test_top.env_h.scoreboard_h [
[ PASS ] data=00111100  || odd_parity=0 even_parity=1
UVM_INFO /home/runner/parity_scoreboard.sv(50) @ 70: uvm_test_top.env_h.scoreboard_h [write_drv STIM] data=11000101 
UVM_INFO /home/runner/parity_scoreboard.sv(64) @ 70: uvm_test_top.env_h.scoreboard_h [write_mon OUT ] data=11000101  || odd_parity=0 even_parity=1
UVM_INFO /home/runner/parity_scoreboard.sv(81) @ 70: uvm_test_top.env_h.scoreboard_h [
[ PASS ] data=11000101  || odd_parity=0 even_parity=1
UVM_INFO /home/runner/parity_scoreboard.sv(50) @ 75: uvm_test_top.env_h.scoreboard_h [write_drv STIM] data=10111011 
UVM_INFO /home/runner/parity_scoreboard.sv(64) @ 75: uvm_test_top.env_h.scoreboard_h [write_mon OUT ] data=10111011  || odd_parity=0 even_parity=1
UVM_INFO /home/runner/parity_scoreboard.sv(81) @ 75: uvm_test_top.env_h.scoreboard_h [
[ PASS ] data=10111011  || odd_parity=0 even_parity=1
UVM_INFO /home/runner/parity_scoreboard.sv(50) @ 80: uvm_test_top.env_h.scoreboard_h [write_drv STIM] data=00011110 
UVM_INFO /home/runner/parity_scoreboard.sv(64) @ 80: uvm_test_top.env_h.scoreboard_h [write_mon OUT ] data=00011110  || odd_parity=0 even_parity=1
UVM_INFO /home/runner/parity_scoreboard.sv(81) @ 80: uvm_test_top.env_h.scoreboard_h [
[ PASS ] data=00011110  || odd_parity=0 even_parity=1
UVM_INFO /home/runner/parity_scoreboard.sv(50) @ 85: uvm_test_top.env_h.scoreboard_h [write_drv STIM] data=11101110 
UVM_INFO /home/runner/parity_scoreboard.sv(64) @ 85: uvm_test_top.env_h.scoreboard_h [write_mon OUT ] data=11101110  || odd_parity=0 even_parity=1
UVM_INFO /home/runner/parity_scoreboard.sv(81) @ 85: uvm_test_top.env_h.scoreboard_h [
[ PASS ] data=11101110  || odd_parity=0 even_parity=1
UVM_INFO /home/runner/parity_scoreboard.sv(50) @ 90: uvm_test_top.env_h.scoreboard_h [write_drv STIM] data=00101011 
UVM_INFO /home/runner/parity_scoreboard.sv(64) @ 90: uvm_test_top.env_h.scoreboard_h [write_mon OUT ] data=00101011  || odd_parity=0 even_parity=1
UVM_INFO /home/runner/parity_scoreboard.sv(81) @ 90: uvm_test_top.env_h.scoreboard_h [
[ PASS ] data=00101011  || odd_parity=0 even_parity=1
UVM_INFO /home/runner/parity_scoreboard.sv(50) @ 95: uvm_test_top.env_h.scoreboard_h [write_drv STIM] data=11010101 
UVM_INFO /home/runner/parity_scoreboard.sv(64) @ 95: uvm_test_top.env_h.scoreboard_h [write_mon OUT ] data=11010101  || odd_parity=1 even_parity=0
UVM_INFO /home/runner/parity_scoreboard.sv(81) @ 95: uvm_test_top.env_h.scoreboard_h [
[ PASS ] data=11010101  || odd_parity=1 even_parity=0
UVM_INFO /home/runner/parity_scoreboard.sv(50) @ 100: uvm_test_top.env_h.scoreboard_h [write_drv STIM] data=11101100 
UVM_INFO /home/runner/parity_scoreboard.sv(64) @ 100: uvm_test_top.env_h.scoreboard_h [write_mon OUT ] data=11101100  || odd_parity=1 even_parity=0
UVM_INFO /home/runner/parity_scoreboard.sv(81) @ 100: uvm_test_top.env_h.scoreboard_h [
[ PASS ] data=11101100  || odd_parity=1 even_parity=0
UVM_INFO /home/runner/parity_scoreboard.sv(50) @ 105: uvm_test_top.env_h.scoreboard_h [write_drv STIM] data=01110000 
UVM_INFO /home/runner/parity_scoreboard.sv(64) @ 105: uvm_test_top.env_h.scoreboard_h [write_mon OUT ] data=01110000  || odd_parity=1 even_parity=0
UVM_INFO /home/runner/parity_scoreboard.sv(81) @ 105: uvm_test_top.env_h.scoreboard_h [
[ PASS ] data=01110000  || odd_parity=1 even_parity=0
UVM_INFO /home/runner/parity_scoreboard.sv(50) @ 110: uvm_test_top.env_h.scoreboard_h [write_drv STIM] data=01100001 
UVM_INFO /home/runner/parity_scoreboard.sv(64) @ 110: uvm_test_top.env_h.scoreboard_h [write_mon OUT ] data=01100001  || odd_parity=1 even_parity=0
UVM_INFO /home/runner/parity_scoreboard.sv(81) @ 110: uvm_test_top.env_h.scoreboard_h [
[ PASS ] data=01100001  || odd_parity=1 even_parity=0
UVM_INFO /home/runner/parity_scoreboard.sv(50) @ 115: uvm_test_top.env_h.scoreboard_h [write_drv STIM] data=10111111 
UVM_INFO /home/runner/parity_scoreboard.sv(64) @ 115: uvm_test_top.env_h.scoreboard_h [write_mon OUT ] data=10111111  || odd_parity=1 even_parity=0
UVM_INFO /home/runner/parity_scoreboard.sv(81) @ 115: uvm_test_top.env_h.scoreboard_h [
[ PASS ] data=10111111  || odd_parity=1 even_parity=0
UVM_INFO /home/runner/parity_scoreboard.sv(50) @ 120: uvm_test_top.env_h.scoreboard_h [write_drv STIM] data=10001010 
UVM_INFO /home/runner/parity_scoreboard.sv(64) @ 120: uvm_test_top.env_h.scoreboard_h [write_mon OUT ] data=10001010  || odd_parity=1 even_parity=0
UVM_INFO /home/runner/parity_scoreboard.sv(81) @ 120: uvm_test_top.env_h.scoreboard_h [
[ PASS ] data=10001010  || odd_parity=1 even_parity=0
UVM_INFO /home/runner/parity_scoreboard.sv(50) @ 125: uvm_test_top.env_h.scoreboard_h [write_drv STIM] data=11000010 
UVM_INFO /home/runner/parity_scoreboard.sv(64) @ 125: uvm_test_top.env_h.scoreboard_h [write_mon OUT ] data=11000010  || odd_parity=1 even_parity=0
UVM_INFO /home/runner/parity_scoreboard.sv(81) @ 125: uvm_test_top.env_h.scoreboard_h [
[ PASS ] data=11000010  || odd_parity=1 even_parity=0
UVM_INFO /home/runner/parity_scoreboard.sv(50) @ 130: uvm_test_top.env_h.scoreboard_h [write_drv STIM] data=01100111 
UVM_INFO /home/runner/parity_scoreboard.sv(64) @ 130: uvm_test_top.env_h.scoreboard_h [write_mon OUT ] data=01100111  || odd_parity=1 even_parity=0
UVM_INFO /home/runner/parity_scoreboard.sv(81) @ 130: uvm_test_top.env_h.scoreboard_h [
[ PASS ] data=01100111  || odd_parity=1 even_parity=0
UVM_INFO /home/runner/parity_scoreboard.sv(50) @ 135: uvm_test_top.env_h.scoreboard_h [write_drv STIM] data=01111001 
UVM_INFO /home/runner/parity_scoreboard.sv(64) @ 135: uvm_test_top.env_h.scoreboard_h [write_mon OUT ] data=01111001  || odd_parity=1 even_parity=0
UVM_INFO /home/runner/parity_scoreboard.sv(81) @ 135: uvm_test_top.env_h.scoreboard_h [
[ PASS ] data=01111001  || odd_parity=1 even_parity=0
UVM_INFO /home/runner/parity_scoreboard.sv(50) @ 140: uvm_test_top.env_h.scoreboard_h [write_drv STIM] data=11111000 
UVM_INFO /home/runner/parity_scoreboard.sv(64) @ 140: uvm_test_top.env_h.scoreboard_h [write_mon OUT ] data=11111000  || odd_parity=1 even_parity=0
UVM_INFO /home/runner/parity_scoreboard.sv(81) @ 140: uvm_test_top.env_h.scoreboard_h [
[ PASS ] data=11111000  || odd_parity=1 even_parity=0
UVM_INFO /home/runner/parity_scoreboard.sv(50) @ 145: uvm_test_top.env_h.scoreboard_h [write_drv STIM] data=11100100 
UVM_INFO /home/runner/parity_scoreboard.sv(64) @ 145: uvm_test_top.env_h.scoreboard_h [write_mon OUT ] data=11100100  || odd_parity=0 even_parity=1
UVM_INFO /home/runner/parity_scoreboard.sv(81) @ 145: uvm_test_top.env_h.scoreboard_h [
[ PASS ] data=11100100  || odd_parity=0 even_parity=1
UVM_INFO /home/runner/parity_scoreboard.sv(50) @ 150: uvm_test_top.env_h.scoreboard_h [write_drv STIM] data=00111101 
UVM_INFO /home/runner/parity_scoreboard.sv(64) @ 150: uvm_test_top.env_h.scoreboard_h [write_mon OUT ] data=00111101  || odd_parity=1 even_parity=0
UVM_INFO /home/runner/parity_scoreboard.sv(81) @ 150: uvm_test_top.env_h.scoreboard_h [
[ PASS ] data=00111101  || odd_parity=1 even_parity=0
UVM_INFO /home/runner/parity_scoreboard.sv(50) @ 155: uvm_test_top.env_h.scoreboard_h [write_drv STIM] data=00000011 
UVM_INFO /home/runner/parity_scoreboard.sv(64) @ 155: uvm_test_top.env_h.scoreboard_h [write_mon OUT ] data=00000011  || odd_parity=0 even_parity=1
UVM_INFO /home/runner/parity_scoreboard.sv(81) @ 155: uvm_test_top.env_h.scoreboard_h [
[ PASS ] data=00000011  || odd_parity=0 even_parity=1
UVM_INFO /home/runner/parity_scoreboard.sv(50) @ 160: uvm_test_top.env_h.scoreboard_h [write_drv STIM] data=00110110 
UVM_INFO /home/runner/parity_scoreboard.sv(64) @ 160: uvm_test_top.env_h.scoreboard_h [write_mon OUT ] data=00110110  || odd_parity=0 even_parity=1
UVM_INFO /home/runner/parity_scoreboard.sv(81) @ 160: uvm_test_top.env_h.scoreboard_h [
[ PASS ] data=00110110  || odd_parity=0 even_parity=1
UVM_INFO /home/runner/parity_scoreboard.sv(50) @ 165: uvm_test_top.env_h.scoreboard_h [write_drv STIM] data=11010110 
UVM_INFO /home/runner/parity_scoreboard.sv(64) @ 165: uvm_test_top.env_h.scoreboard_h [write_mon OUT ] data=11010110  || odd_parity=1 even_parity=0
UVM_INFO /home/runner/parity_scoreboard.sv(81) @ 165: uvm_test_top.env_h.scoreboard_h [
[ PASS ] data=11010110  || odd_parity=1 even_parity=0
UVM_INFO /home/runner/parity_scoreboard.sv(50) @ 170: uvm_test_top.env_h.scoreboard_h [write_drv STIM] data=11100011 
UVM_INFO /home/runner/parity_scoreboard.sv(64) @ 170: uvm_test_top.env_h.scoreboard_h [write_mon OUT ] data=11100011  || odd_parity=1 even_parity=0
UVM_INFO /home/runner/parity_scoreboard.sv(81) @ 170: uvm_test_top.env_h.scoreboard_h [
[ PASS ] data=11100011  || odd_parity=1 even_parity=0
UVM_INFO /home/runner/parity_scoreboard.sv(50) @ 175: uvm_test_top.env_h.scoreboard_h [write_drv STIM] data=01011101 
UVM_INFO /home/runner/parity_scoreboard.sv(64) @ 175: uvm_test_top.env_h.scoreboard_h [write_mon OUT ] data=01011101  || odd_parity=1 even_parity=0
UVM_INFO /home/runner/parity_scoreboard.sv(81) @ 175: uvm_test_top.env_h.scoreboard_h [
[ PASS ] data=01011101  || odd_parity=1 even_parity=0
UVM_INFO /home/runner/parity_scoreboard.sv(50) @ 180: uvm_test_top.env_h.scoreboard_h [write_drv STIM] data=01000100 
UVM_INFO /home/runner/parity_scoreboard.sv(64) @ 180: uvm_test_top.env_h.scoreboard_h [write_mon OUT ] data=01000100  || odd_parity=0 even_parity=1
UVM_INFO /home/runner/parity_scoreboard.sv(81) @ 180: uvm_test_top.env_h.scoreboard_h [
[ PASS ] data=01000100  || odd_parity=0 even_parity=1
UVM_INFO /home/runner/parity_scoreboard.sv(50) @ 185: uvm_test_top.env_h.scoreboard_h [write_drv STIM] data=10011000 
UVM_INFO /home/runner/parity_scoreboard.sv(64) @ 185: uvm_test_top.env_h.scoreboard_h [write_mon OUT ] data=10011000  || odd_parity=1 even_parity=0
UVM_INFO /home/runner/parity_scoreboard.sv(81) @ 185: uvm_test_top.env_h.scoreboard_h [
[ PASS ] data=10011000  || odd_parity=1 even_parity=0
UVM_INFO /home/runner/parity_scoreboard.sv(50) @ 190: uvm_test_top.env_h.scoreboard_h [write_drv STIM] data=01011001 
UVM_INFO /home/runner/parity_scoreboard.sv(64) @ 190: uvm_test_top.env_h.scoreboard_h [write_mon OUT ] data=01011001  || odd_parity=0 even_parity=1
UVM_INFO /home/runner/parity_scoreboard.sv(81) @ 190: uvm_test_top.env_h.scoreboard_h [
[ PASS ] data=01011001  || odd_parity=0 even_parity=1
UVM_INFO /home/runner/parity_scoreboard.sv(50) @ 195: uvm_test_top.env_h.scoreboard_h [write_drv STIM] data=10000111 
UVM_INFO /home/runner/parity_scoreboard.sv(64) @ 195: uvm_test_top.env_h.scoreboard_h [write_mon OUT ] data=10000111  || odd_parity=0 even_parity=1
UVM_INFO /home/runner/parity_scoreboard.sv(81) @ 195: uvm_test_top.env_h.scoreboard_h [
[ PASS ] data=10000111  || odd_parity=0 even_parity=1
UVM_INFO /home/runner/parity_scoreboard.sv(50) @ 200: uvm_test_top.env_h.scoreboard_h [write_drv STIM] data=00100010 
UVM_INFO /home/runner/parity_scoreboard.sv(64) @ 200: uvm_test_top.env_h.scoreboard_h [write_mon OUT ] data=00100010  || odd_parity=0 even_parity=1
UVM_INFO /home/runner/parity_scoreboard.sv(81) @ 200: uvm_test_top.env_h.scoreboard_h [
[ PASS ] data=00100010  || odd_parity=0 even_parity=1
UVM_INFO /home/runner/parity_scoreboard.sv(50) @ 205: uvm_test_top.env_h.scoreboard_h [write_drv STIM] data=00101010 
UVM_INFO /home/runner/parity_scoreboard.sv(64) @ 205: uvm_test_top.env_h.scoreboard_h [write_mon OUT ] data=00101010  || odd_parity=1 even_parity=0
UVM_INFO /home/runner/parity_scoreboard.sv(81) @ 205: uvm_test_top.env_h.scoreboard_h [
[ PASS ] data=00101010  || odd_parity=1 even_parity=0
UVM_INFO /home/runner/parity_scoreboard.sv(50) @ 210: uvm_test_top.env_h.scoreboard_h [write_drv STIM] data=10011111 
UVM_INFO /home/runner/parity_scoreboard.sv(64) @ 210: uvm_test_top.env_h.scoreboard_h [write_mon OUT ] data=10011111  || odd_parity=0 even_parity=1
UVM_INFO /home/runner/parity_scoreboard.sv(81) @ 210: uvm_test_top.env_h.scoreboard_h [
[ PASS ] data=10011111  || odd_parity=0 even_parity=1
UVM_INFO /home/runner/parity_scoreboard.sv(50) @ 215: uvm_test_top.env_h.scoreboard_h [write_drv STIM] data=10000001 
UVM_INFO /home/runner/parity_scoreboard.sv(64) @ 215: uvm_test_top.env_h.scoreboard_h [write_mon OUT ] data=10000001  || odd_parity=0 even_parity=1
UVM_INFO /home/runner/parity_scoreboard.sv(81) @ 215: uvm_test_top.env_h.scoreboard_h [
[ PASS ] data=10000001  || odd_parity=0 even_parity=1
UVM_INFO /home/runner/parity_scoreboard.sv(50) @ 220: uvm_test_top.env_h.scoreboard_h [write_drv STIM] data=11010000 
UVM_INFO /home/runner/parity_scoreboard.sv(64) @ 220: uvm_test_top.env_h.scoreboard_h [write_mon OUT ] data=11010000  || odd_parity=1 even_parity=0
UVM_INFO /home/runner/parity_scoreboard.sv(81) @ 220: uvm_test_top.env_h.scoreboard_h [
[ PASS ] data=11010000  || odd_parity=1 even_parity=0
UVM_INFO /home/runner/parity_scoreboard.sv(50) @ 225: uvm_test_top.env_h.scoreboard_h [write_drv STIM] data=10001100 
UVM_INFO /home/runner/parity_scoreboard.sv(64) @ 225: uvm_test_top.env_h.scoreboard_h [write_mon OUT ] data=10001100  || odd_parity=1 even_parity=0
UVM_INFO /home/runner/parity_scoreboard.sv(81) @ 225: uvm_test_top.env_h.scoreboard_h [
[ PASS ] data=10001100  || odd_parity=1 even_parity=0
UVM_INFO /home/runner/parity_scoreboard.sv(50) @ 230: uvm_test_top.env_h.scoreboard_h [write_drv STIM] data=10110101 
UVM_INFO /home/runner/parity_scoreboard.sv(64) @ 230: uvm_test_top.env_h.scoreboard_h [write_mon OUT ] data=10110101  || odd_parity=1 even_parity=0
UVM_INFO /home/runner/parity_scoreboard.sv(81) @ 230: uvm_test_top.env_h.scoreboard_h [
[ PASS ] data=10110101  || odd_parity=1 even_parity=0
UVM_INFO /home/runner/parity_scoreboard.sv(50) @ 235: uvm_test_top.env_h.scoreboard_h [write_drv STIM] data=01001011 
UVM_INFO /home/runner/parity_scoreboard.sv(64) @ 235: uvm_test_top.env_h.scoreboard_h [write_mon OUT ] data=01001011  || odd_parity=0 even_parity=1
UVM_INFO /home/runner/parity_scoreboard.sv(81) @ 235: uvm_test_top.env_h.scoreboard_h [
[ PASS ] data=01001011  || odd_parity=0 even_parity=1
UVM_INFO /home/runner/parity_scoreboard.sv(50) @ 240: uvm_test_top.env_h.scoreboard_h [write_drv STIM] data=01001110 
UVM_INFO /home/runner/parity_scoreboard.sv(64) @ 240: uvm_test_top.env_h.scoreboard_h [write_mon OUT ] data=01001110  || odd_parity=0 even_parity=1
UVM_INFO /home/runner/parity_scoreboard.sv(81) @ 240: uvm_test_top.env_h.scoreboard_h [
[ PASS ] data=01001110  || odd_parity=0 even_parity=1
UVM_INFO /home/runner/parity_scoreboard.sv(50) @ 245: uvm_test_top.env_h.scoreboard_h [write_drv STIM] data=10111110 
UVM_INFO /home/runner/parity_scoreboard.sv(64) @ 245: uvm_test_top.env_h.scoreboard_h [write_mon OUT ] data=10111110  || odd_parity=0 even_parity=1
UVM_INFO /home/runner/parity_scoreboard.sv(81) @ 245: uvm_test_top.env_h.scoreboard_h [
[ PASS ] data=10111110  || odd_parity=0 even_parity=1
UVM_INFO /home/runner/parity_scoreboard.sv(50) @ 250: uvm_test_top.env_h.scoreboard_h [write_drv STIM] data=10011011 
UVM_INFO /home/runner/parity_scoreboard.sv(64) @ 250: uvm_test_top.env_h.scoreboard_h [write_mon OUT ] data=10011011  || odd_parity=1 even_parity=0
UVM_INFO /home/runner/parity_scoreboard.sv(81) @ 250: uvm_test_top.env_h.scoreboard_h [
[ PASS ] data=10011011  || odd_parity=1 even_parity=0
UVM_INFO /home/runner/parity_scoreboard.sv(50) @ 255: uvm_test_top.env_h.scoreboard_h [write_drv STIM] data=00000001 
UVM_INFO /home/runner/parity_scoreboard.sv(64) @ 255: uvm_test_top.env_h.scoreboard_h [write_mon OUT ] data=00000001  || odd_parity=1 even_parity=0
UVM_INFO /home/runner/parity_scoreboard.sv(81) @ 255: uvm_test_top.env_h.scoreboard_h [
[ PASS ] data=00000001  || odd_parity=1 even_parity=0
UVM_INFO /home/runner/parity_scoreboard.sv(50) @ 260: uvm_test_top.env_h.scoreboard_h [write_drv STIM] data=00000010 
UVM_INFO /home/runner/parity_scoreboard.sv(64) @ 260: uvm_test_top.env_h.scoreboard_h [write_mon OUT ] data=00000010  || odd_parity=1 even_parity=0
UVM_INFO /home/runner/parity_scoreboard.sv(81) @ 260: uvm_test_top.env_h.scoreboard_h [
[ PASS ] data=00000010  || odd_parity=1 even_parity=0
UVM_INFO /home/runner/parity_scoreboard.sv(50) @ 265: uvm_test_top.env_h.scoreboard_h [write_drv STIM] data=00000011 
UVM_INFO /home/runner/parity_scoreboard.sv(64) @ 265: uvm_test_top.env_h.scoreboard_h [write_mon OUT ] data=00000011  || odd_parity=0 even_parity=1
UVM_INFO /home/runner/parity_scoreboard.sv(81) @ 265: uvm_test_top.env_h.scoreboard_h [
[ PASS ] data=00000011  || odd_parity=0 even_parity=1
UVM_INFO /home/runner/parity_scoreboard.sv(50) @ 270: uvm_test_top.env_h.scoreboard_h [write_drv STIM] data=00000100 
UVM_INFO /home/runner/parity_scoreboard.sv(64) @ 270: uvm_test_top.env_h.scoreboard_h [write_mon OUT ] data=00000100  || odd_parity=1 even_parity=0
UVM_INFO /home/runner/parity_scoreboard.sv(81) @ 270: uvm_test_top.env_h.scoreboard_h [
[ PASS ] data=00000100  || odd_parity=1 even_parity=0
UVM_INFO /home/runner/parity_scoreboard.sv(50) @ 275: uvm_test_top.env_h.scoreboard_h [write_drv STIM] data=00000101 
UVM_INFO /home/runner/parity_scoreboard.sv(64) @ 275: uvm_test_top.env_h.scoreboard_h [write_mon OUT ] data=00000101  || odd_parity=0 even_parity=1
UVM_INFO /home/runner/parity_scoreboard.sv(81) @ 275: uvm_test_top.env_h.scoreboard_h [
[ PASS ] data=00000101  || odd_parity=0 even_parity=1
UVM_INFO /home/runner/parity_scoreboard.sv(50) @ 280: uvm_test_top.env_h.scoreboard_h [write_drv STIM] data=00000110 
UVM_INFO /home/runner/parity_scoreboard.sv(64) @ 280: uvm_test_top.env_h.scoreboard_h [write_mon OUT ] data=00000110  || odd_parity=0 even_parity=1
UVM_INFO /home/runner/parity_scoreboard.sv(81) @ 280: uvm_test_top.env_h.scoreboard_h [
[ PASS ] data=00000110  || odd_parity=0 even_parity=1
UVM_INFO /home/runner/parity_scoreboard.sv(50) @ 285: uvm_test_top.env_h.scoreboard_h [write_drv STIM] data=00000111 
UVM_INFO /home/runner/parity_scoreboard.sv(64) @ 285: uvm_test_top.env_h.scoreboard_h [write_mon OUT ] data=00000111  || odd_parity=1 even_parity=0
UVM_INFO /home/runner/parity_scoreboard.sv(81) @ 285: uvm_test_top.env_h.scoreboard_h [
[ PASS ] data=00000111  || odd_parity=1 even_parity=0
UVM_INFO /home/runner/parity_scoreboard.sv(50) @ 290: uvm_test_top.env_h.scoreboard_h [write_drv STIM] data=00001000 
UVM_INFO /home/runner/parity_scoreboard.sv(64) @ 290: uvm_test_top.env_h.scoreboard_h [write_mon OUT ] data=00001000  || odd_parity=1 even_parity=0
UVM_INFO /home/runner/parity_scoreboard.sv(81) @ 290: uvm_test_top.env_h.scoreboard_h [
[ PASS ] data=00001000  || odd_parity=1 even_parity=0
UVM_INFO /home/runner/parity_scoreboard.sv(50) @ 295: uvm_test_top.env_h.scoreboard_h [write_drv STIM] data=00001001 
UVM_INFO /home/runner/parity_scoreboard.sv(64) @ 295: uvm_test_top.env_h.scoreboard_h [write_mon OUT ] data=00001001  || odd_parity=0 even_parity=1
UVM_INFO /home/runner/parity_scoreboard.sv(81) @ 295: uvm_test_top.env_h.scoreboard_h [
[ PASS ] data=00001001  || odd_parity=0 even_parity=1
UVM_INFO /home/runner/parity_scoreboard.sv(50) @ 300: uvm_test_top.env_h.scoreboard_h [write_drv STIM] data=00001010 
UVM_INFO /home/runner/parity_scoreboard.sv(64) @ 300: uvm_test_top.env_h.scoreboard_h [write_mon OUT ] data=00001010  || odd_parity=0 even_parity=1
UVM_INFO /home/runner/parity_scoreboard.sv(81) @ 300: uvm_test_top.env_h.scoreboard_h [
[ PASS ] data=00001010  || odd_parity=0 even_parity=1
UVM_INFO /home/runner/parity_scoreboard.sv(50) @ 305: uvm_test_top.env_h.scoreboard_h [write_drv STIM] data=00001011 
UVM_INFO /home/runner/parity_scoreboard.sv(64) @ 305: uvm_test_top.env_h.scoreboard_h [write_mon OUT ] data=00001011  || odd_parity=1 even_parity=0
UVM_INFO /home/runner/parity_scoreboard.sv(81) @ 305: uvm_test_top.env_h.scoreboard_h [
[ PASS ] data=00001011  || odd_parity=1 even_parity=0
UVM_INFO /home/runner/parity_scoreboard.sv(50) @ 310: uvm_test_top.env_h.scoreboard_h [write_drv STIM] data=00001100 
UVM_INFO /home/runner/parity_scoreboard.sv(64) @ 310: uvm_test_top.env_h.scoreboard_h [write_mon OUT ] data=00001100  || odd_parity=0 even_parity=1
UVM_INFO /home/runner/parity_scoreboard.sv(81) @ 310: uvm_test_top.env_h.scoreboard_h [
[ PASS ] data=00001100  || odd_parity=0 even_parity=1
UVM_INFO /home/runner/parity_scoreboard.sv(50) @ 315: uvm_test_top.env_h.scoreboard_h [write_drv STIM] data=00001101 
UVM_INFO /home/runner/parity_scoreboard.sv(64) @ 315: uvm_test_top.env_h.scoreboard_h [write_mon OUT ] data=00001101  || odd_parity=1 even_parity=0
UVM_INFO /home/runner/parity_scoreboard.sv(81) @ 315: uvm_test_top.env_h.scoreboard_h [
[ PASS ] data=00001101  || odd_parity=1 even_parity=0
UVM_INFO /home/runner/parity_scoreboard.sv(50) @ 320: uvm_test_top.env_h.scoreboard_h [write_drv STIM] data=00001110 
UVM_INFO /home/runner/parity_scoreboard.sv(64) @ 320: uvm_test_top.env_h.scoreboard_h [write_mon OUT ] data=00001110  || odd_parity=1 even_parity=0
UVM_INFO /home/runner/parity_scoreboard.sv(81) @ 320: uvm_test_top.env_h.scoreboard_h [
[ PASS ] data=00001110  || odd_parity=1 even_parity=0
UVM_INFO /home/runner/parity_scoreboard.sv(50) @ 325: uvm_test_top.env_h.scoreboard_h [write_drv STIM] data=00001111 
